…
## Replace "," with "." for later calculation

```r
diabetes <- diabetes %>% 
  mutate_if(is.character, ~str_replace(., ",", ".")) %>%
  mutate(chol_ratio = as.numeric(cholesterol/hdl_chol))
diabetes
```

```
## # A tibble: 390 × 17
##    patient_nu…¹ chole…² glucose hdl_c…³ chol_…⁴   age gender height weight   bmi
##           <dbl>   <dbl>   <dbl>   <dbl>   <dbl> <dbl> <chr>   <dbl>  <dbl> <dbl>
##  1            1     193      77      49      39    19 female     61    119   225
##  2            2     146      79      41      36    19 female     60    135   264
##  3            3     217      75      54       4    20 female     67    187   293
##  4            4     226      97      70      32    20 female     64    114   196
##  5            5     164      91      67      24    20 female     70    141   202
##  6            6     170      69      64      27    20 female     64    161   276
##  7            7     149      77      49       3    20 female     62    115    21
##  8            8     164      71      63      26    20 male       72    145   197
##  9            9     230     112      64      36    20 male       67    159   249
## 10           10     179     105      60       3    20 female     58    170   355
## # … with 380 more rows, 7 more variables: systolic_bp <dbl>,
## #   diastolic_bp <dbl>, waist <dbl>, hip <dbl>, waist_hip_ratio <chr>,
## #   diabetes <chr>, chol_ratio <dbl>, and abbreviated variable names
## #   ¹​patient_number, ²​cholesterol, ³​hdl_chol, ⁴​chol_hdl_ratio
```
…
```r
age_diabetes <- diabetes %>%
  mutate(diabetic=ifelse(diabetes == "Diabetes", 1, 0)) %>% 
  mutate(age_category=case_when(age<=19~"teenager",
         age>=20 & age<40~"adult",
         age>=40 & age<60~"mid aged",
         age>=60 & age<80~"senior",
         age>=80~"super senior")) %>%  
  filter(age_category!="NA")
age_diabetes
```

```
## # A tibble: 390 × 19
##    patient_nu…¹ chole…² glucose hdl_c…³ chol_…⁴   age gender height weight   bmi
##           <dbl>   <dbl>   <dbl>   <dbl>   <dbl> <dbl> <chr>   <dbl>  <dbl> <dbl>
##  1            1     193      77      49      39    19 female     61    119   225
##  2            2     146      79      41      36    19 female     60    135   264
##  3            3     217      75      54       4    20 female     67    187   293
##  4            4     226      97      70      32    20 female     64    114   196
##  5            5     164      91      67      24    20 female     70    141   202
##  6            6     170      69      64      27    20 female     64    161   276
##  7            7     149      77      49       3    20 female     62    115    21
##  8            8     164      71      63      26    20 male       72    145   197
##  9            9     230     112      64      36    20 male       67    159   249
## 10           10     179     105      60       3    20 female     58    170   355
## # … with 380 more rows, 9 more variables: systolic_bp <dbl>,
## #   diastolic_bp <dbl>, waist <dbl>, hip <dbl>, waist_hip_ratio <chr>,
## #   diabetes <chr>, chol_ratio <dbl>, diabetic <dbl>, age_category <chr>, and
## #   abbreviated variable names ¹​patient_number, ²​cholesterol, ³​hdl_chol,
## #   ⁴​chol_hdl_ratio
```
…
